\relax 
\@writefile{toc}{\contentsline {chapter}{\numberline {E}GNU Free Documentation License}{26}}
\@writefile{lof}{\addvspace {10\p@ }}
\@writefile{lot}{\addvspace {10\p@ }}
\newlabel{label_fdl}{{E}{26}}
\@writefile{toc}{\contentsline {section}{1. APPLICABILITY AND DEFINITIONS}{26}}
\@writefile{toc}{\contentsline {section}{2. VERBATIM COPYING}{28}}
\@writefile{toc}{\contentsline {section}{3. COPYING IN QUANTITY}{28}}
\@writefile{toc}{\contentsline {section}{4. MODIFICATIONS}{29}}
\@writefile{toc}{\contentsline {section}{5. COMBINING DOCUMENTS}{30}}
\@writefile{toc}{\contentsline {section}{6. COLLECTIONS OF DOCUMENTS}{31}}
\@writefile{toc}{\contentsline {section}{7. AGGREGATION WITH INDEPENDENT WORKS}{31}}
\@writefile{toc}{\contentsline {section}{8. TRANSLATION}{31}}
\@writefile{toc}{\contentsline {section}{9. TERMINATION}{31}}
\@writefile{toc}{\contentsline {section}{10. FUTURE REVISIONS OF THIS LICENSE}{32}}
\@writefile{toc}{\contentsline {section}{11. RELICENSING}{32}}
\@writefile{toc}{\contentsline {section}{ADDENDUM: How to use this License for your documents}{33}}
\@setckpt{license/fdl-1.3}{
\setcounter{page}{34}
\setcounter{equation}{0}
\setcounter{enumi}{6}
\setcounter{enumii}{2}
\setcounter{enumiii}{1}
\setcounter{enumiv}{0}
\setcounter{footnote}{0}
\setcounter{mpfootnote}{0}
\setcounter{part}{0}
\setcounter{chapter}{5}
\setcounter{section}{0}
\setcounter{subsection}{0}
\setcounter{subsubsection}{0}
\setcounter{paragraph}{0}
\setcounter{subparagraph}{0}
\setcounter{figure}{0}
\setcounter{table}{0}
\setcounter{parentequation}{0}
\setcounter{ContinuedFloat}{0}
}
