\relax 
\@writefile{toc}{\contentsline {chapter}{\numberline {B}Contributing to TSL}{11}}
\@writefile{lof}{\addvspace {10\p@ }}
\@writefile{lot}{\addvspace {10\p@ }}
\@writefile{toc}{\contentsline {section}{\numberline {B.1}Fortran code}{11}}
\@writefile{toc}{\contentsline {section}{\numberline {B.2}Makefiles}{11}}
\@writefile{toc}{\contentsline {section}{\numberline {B.3}Documentation}{11}}
\@setckpt{contrib/contrib}{
\setcounter{page}{12}
\setcounter{equation}{0}
\setcounter{enumi}{7}
\setcounter{enumii}{0}
\setcounter{enumiii}{0}
\setcounter{enumiv}{0}
\setcounter{footnote}{0}
\setcounter{mpfootnote}{0}
\setcounter{part}{0}
\setcounter{chapter}{2}
\setcounter{section}{3}
\setcounter{subsection}{0}
\setcounter{subsubsection}{0}
\setcounter{paragraph}{0}
\setcounter{subparagraph}{0}
\setcounter{figure}{0}
\setcounter{table}{0}
\setcounter{parentequation}{0}
\setcounter{ContinuedFloat}{0}
}
